<svg xmlns="http://www.w3.org/2000/svg" viewBox="0 0 16 16">
  <defs>
    <style>
      .cls-1 {
        fill: #0078d4;
      }
    </style>
  </defs>
  <path id="Info_active" data-name="Info active" class="cls-1" d="M23,15a8,8,0,1,0,8,8A8,8,0,0,0,23,15Zm.743,11.086h-1.6V21.971h1.6Zm-.8-4.8a.8.8,0,1,1,.8-.8A.8.8,0,0,1,22.943,21.286Z" transform="translate(-15 -15)"/>
</svg>
