<svg xmlns="http://www.w3.org/2000/svg" viewBox="0 0 26.946 32.144">
  <defs>
    <style>
      .cls-1 {
        fill: #fff;
      }
    </style>
  </defs>
  <path id="office_logo_W" data-name="office logo_W" class="cls-1" d="M80.511-259.325c.049-.309.062-22.638.015-23.125l-11.387,2.713V-264l-5.861,2.289a.371.371,0,0,1-.033-.018c-.009-.006-.02-.016-.02-.024a1.7,1.7,0,0,1-.014-.178q0-9.54,0-19.065a.565.565,0,0,1,.3-.157q8.364-3.132,16.729-6.262a.858.858,0,0,1,.583-.045q4.59,1.332,9.184,2.647l.152.049v26.807c-.879.244-1.751.489-2.623.729q-3.33.918-6.66,1.837a.95.95,0,0,1-.621-.023q-8.227-3.04-16.457-6.069a.744.744,0,0,1-.305-.181l17.021,2.336Z" transform="translate(-63.21 287.49)"/>
</svg>
