<svg xmlns="http://www.w3.org/2000/svg" viewBox="0 0 37.241 34.938">
  <defs>
    <style>
      .cls-1 {
        fill: #fff;
      }
    </style>
  </defs>
  <g id="sharepoint_logo_W" data-name="sharepoint logo_W" transform="translate(0 0)">
    <g id="Layer_1" data-name="Layer 1">
      <path id="Path_8946" data-name="Path 8946" class="cls-1" d="M49.388,17.132a3.2,3.2,0,0,0-.718.077,9.7,9.7,0,0,0-4.876-5.229A3.533,3.533,0,0,0,38.1,8.77v5.541a3.531,3.531,0,0,0,5.094-.766,7.974,7.974,0,0,1,3.963,4.381,3.533,3.533,0,0,0,0,5.494,8.021,8.021,0,0,1-3.993,4.464,3.533,3.533,0,0,0-5.094-.766v5.541a3.533,3.533,0,0,0,5.724-2.768,3.728,3.728,0,0,0-.029-.448,9.658,9.658,0,0,0,4.905-5.3,3.333,3.333,0,0,0,.689.071,3.533,3.533,0,0,0,0-7.067Z" transform="translate(-15.651 -3.293)"/>
      <path id="Path_8947" data-name="Path 8947" class="cls-1" d="M.041,3.728,0,31.211l20.511,3.728V0ZM11.6,24.339c-1.672,1.213-3.863.7-5.624,0,0-1.025-.047-2.049-.082-3.08,1.131.836,2.8,2.067,4.122.925,1.042-1.767-1.007-2.862-2.191-3.71a4.6,4.6,0,0,1-.141-7.408c1.443-.913,3.2-.624,4.794-.4l.071,2.88c-1.325-.418-3.015-1.26-4.122.088-.76,1.985,1.643,2.732,2.8,3.769a4.464,4.464,0,0,1,.371,6.937Z"/>
    </g>
  </g>
</svg>
